%YAML 1.1
%TAG !u! tag:unity3d.com,2011:
--- !u!114 &11400000
MonoBehaviour:
  m_ObjectHideFlags: 0
  m_CorrespondingSourceObject: {fileID: 0}
  m_PrefabInstance: {fileID: 0}
  m_PrefabAsset: {fileID: 0}
  m_GameObject: {fileID: 0}
  m_Enabled: 1
  m_EditorHideFlags: 0
  m_Script: {fileID: 11500000, guid: 21e56568eaf66974287f21983c90c37d, type: 3}
  m_Name: Deep
  m_EditorClassIdentifier: 
  background: {fileID: 21300000, guid: cd5b1f753846aca4da01976e88fa89dd, type: 3}
  portalSprite: {fileID: 21300000, guid: 1902d14d4b3505347b713a7d37b80101, type: 3}
  environmentalLightIntensity: 0.5
  lureLightFactor: 3
  lureLightDistance: 50
  name: Tretcheon
  fishies:
  - {fileID: 11400000, guid: fbb935ddb8b220d40bc9867cc7d451d1, type: 2}
  - {fileID: 11400000, guid: 3c6ad768fba5883438c1b7225df4028c, type: 2}
  - {fileID: 11400000, guid: ee23b148c65ebb74a9b8bd2af60a3508, type: 2}
  - {fileID: 11400000, guid: 05f98b2d2fad5d142a9c3539299f26e1, type: 2}
  - {fileID: 11400000, guid: 1da84d07372bb5c42bd5ef86dd613bf6, type: 2}
