%YAML 1.1
%TAG !u! tag:unity3d.com,2011:
--- !u!114 &11400000
MonoBehaviour:
  m_ObjectHideFlags: 0
  m_CorrespondingSourceObject: {fileID: 0}
  m_PrefabInstance: {fileID: 0}
  m_PrefabAsset: {fileID: 0}
  m_GameObject: {fileID: 0}
  m_Enabled: 1
  m_EditorHideFlags: 0
  m_Script: {fileID: 11500000, guid: 3b10182299f371f4d841476e71d56191, type: 3}
  m_Name: bait.teal
  m_EditorClassIdentifier: 
  prefab: {fileID: 6838103773779065873, guid: 7d984126d6a33b447bfb3ca285ca2a88, type: 3}
  name: Glarm
  simulationSprite: {fileID: 21300000, guid: 235d13e5fdc7e4f4fb1947fa82fb886b, type: 3}
  simulationMaterial: {fileID: 2100000, guid: 5993b0e3700800e429004fc256b8ccc3, type: 2}
