%YAML 1.1
%TAG !u! tag:unity3d.com,2011:
--- !u!1001 &7988447689350936363
PrefabInstance:
  m_ObjectHideFlags: 0
  serializedVersion: 2
  m_Modification:
    m_TransformParent: {fileID: 0}
    m_Modifications:
    - target: {fileID: 2786301494373031877, guid: b0287a3e63862ba4b9e99f2c116defd0,
        type: 3}
      propertyPath: m_LocalPosition.y
      value: -0.07000005
      objectReference: {fileID: 0}
    - target: {fileID: 2786301494373031877, guid: b0287a3e63862ba4b9e99f2c116defd0,
        type: 3}
      propertyPath: m_LocalPosition.x
      value: 2.0499997
      objectReference: {fileID: 0}
    - target: {fileID: 2786301494373031882, guid: b0287a3e63862ba4b9e99f2c116defd0,
        type: 3}
      propertyPath: m_Sprite
      value: 
      objectReference: {fileID: 21300000, guid: a567554595fc1ac42bd84d58f72b8de7,
        type: 3}
    - target: {fileID: 2786301494373031882, guid: b0287a3e63862ba4b9e99f2c116defd0,
        type: 3}
      propertyPath: m_Materials.Array.data[0]
      value: 
      objectReference: {fileID: 2100000, guid: 6c8e4429d2374394fb7cf3a5ae041321, type: 2}
    - target: {fileID: 2786301494373031883, guid: b0287a3e63862ba4b9e99f2c116defd0,
        type: 3}
      propertyPath: m_IsActive
      value: 1
      objectReference: {fileID: 0}
    - target: {fileID: 2786301494577488968, guid: b0287a3e63862ba4b9e99f2c116defd0,
        type: 3}
      propertyPath: m_Name
      value: FishSim_Bleb_4
      objectReference: {fileID: 0}
    - target: {fileID: 2786301494577488970, guid: b0287a3e63862ba4b9e99f2c116defd0,
        type: 3}
      propertyPath: m_LocalPosition.x
      value: 0
      objectReference: {fileID: 0}
    - target: {fileID: 2786301494577488970, guid: b0287a3e63862ba4b9e99f2c116defd0,
        type: 3}
      propertyPath: m_LocalPosition.y
      value: 0
      objectReference: {fileID: 0}
    - target: {fileID: 2786301494577488970, guid: b0287a3e63862ba4b9e99f2c116defd0,
        type: 3}
      propertyPath: m_LocalPosition.z
      value: 0
      objectReference: {fileID: 0}
    - target: {fileID: 2786301494577488970, guid: b0287a3e63862ba4b9e99f2c116defd0,
        type: 3}
      propertyPath: m_LocalRotation.x
      value: 0
      objectReference: {fileID: 0}
    - target: {fileID: 2786301494577488970, guid: b0287a3e63862ba4b9e99f2c116defd0,
        type: 3}
      propertyPath: m_LocalRotation.y
      value: 0
      objectReference: {fileID: 0}
    - target: {fileID: 2786301494577488970, guid: b0287a3e63862ba4b9e99f2c116defd0,
        type: 3}
      propertyPath: m_LocalRotation.z
      value: 0
      objectReference: {fileID: 0}
    - target: {fileID: 2786301494577488970, guid: b0287a3e63862ba4b9e99f2c116defd0,
        type: 3}
      propertyPath: m_LocalRotation.w
      value: 1
      objectReference: {fileID: 0}
    - target: {fileID: 2786301494577488970, guid: b0287a3e63862ba4b9e99f2c116defd0,
        type: 3}
      propertyPath: m_RootOrder
      value: 0
      objectReference: {fileID: 0}
    - target: {fileID: 2786301494577488970, guid: b0287a3e63862ba4b9e99f2c116defd0,
        type: 3}
      propertyPath: m_LocalEulerAnglesHint.x
      value: 0
      objectReference: {fileID: 0}
    - target: {fileID: 2786301494577488970, guid: b0287a3e63862ba4b9e99f2c116defd0,
        type: 3}
      propertyPath: m_LocalEulerAnglesHint.y
      value: 0
      objectReference: {fileID: 0}
    - target: {fileID: 2786301494577488970, guid: b0287a3e63862ba4b9e99f2c116defd0,
        type: 3}
      propertyPath: m_LocalEulerAnglesHint.z
      value: 0
      objectReference: {fileID: 0}
    - target: {fileID: 3591515854744432400, guid: b0287a3e63862ba4b9e99f2c116defd0,
        type: 3}
      propertyPath: m_LocalPosition.y
      value: -0.07
      objectReference: {fileID: 0}
    - target: {fileID: 3591515854744432400, guid: b0287a3e63862ba4b9e99f2c116defd0,
        type: 3}
      propertyPath: m_LocalPosition.x
      value: 2.05
      objectReference: {fileID: 0}
    - target: {fileID: 4311708473783240439, guid: b0287a3e63862ba4b9e99f2c116defd0,
        type: 3}
      propertyPath: m_Radius
      value: 0.3
      objectReference: {fileID: 0}
    - target: {fileID: 4952998498968736503, guid: b0287a3e63862ba4b9e99f2c116defd0,
        type: 3}
      propertyPath: m_Sprite
      value: 
      objectReference: {fileID: 21300000, guid: 00e418f897f9bd64b9007689a1bab9f8,
        type: 3}
    - target: {fileID: 4952998498968736503, guid: b0287a3e63862ba4b9e99f2c116defd0,
        type: 3}
      propertyPath: m_Materials.Array.data[0]
      value: 
      objectReference: {fileID: 2100000, guid: fae4da6d807265e4cb040e9d11f1c381, type: 2}
    - target: {fileID: 5531955079687418146, guid: b0287a3e63862ba4b9e99f2c116defd0,
        type: 3}
      propertyPath: m_LocalPosition.x
      value: -0.28
      objectReference: {fileID: 0}
    - target: {fileID: 5531955079687418146, guid: b0287a3e63862ba4b9e99f2c116defd0,
        type: 3}
      propertyPath: m_LocalPosition.y
      value: -0.03
      objectReference: {fileID: 0}
    m_RemovedComponents: []
  m_SourcePrefab: {fileID: 100100000, guid: b0287a3e63862ba4b9e99f2c116defd0, type: 3}
