%YAML 1.1
%TAG !u! tag:unity3d.com,2011:
--- !u!1045 &1
EditorBuildSettings:
  m_ObjectHideFlags: 0
  serializedVersion: 2
  m_Scenes:
  - enabled: 1
    path: Assets/Scenes/Intro.unity
    guid: e7ad8ba48a2b11943bb74a983e3f534f
  - enabled: 1
    path: Assets/Scenes/Ship.unity
    guid: 1861cf75a7f6d344d8ed60e7a890267e
  - enabled: 1
    path: Assets/Scenes/Fishing.unity
    guid: 9fc0d4010bbf28b4594072e72b8655ab
  - enabled: 1
    path: Assets/Scenes/Ending.unity
    guid: bd059c3637b87ab45b9d31c45bb469ab
  - enabled: 1
    path: Assets/Scenes/Credits.unity
    guid: 268bdf5dd49ebc14b8dc47cd4a4124be
  - enabled: 1
    path: Assets/Scenes/HowToPlay.unity
    guid: bc6d66f6cc4c3ae478094a82b7530201
  m_configObjects: {}
